<?xml version="1.0" encoding="UTF-8" standalone="no"?>
<svg width="83px" height="72px" viewBox="0 0 83 72" version="1.1" xmlns="http://www.w3.org/2000/svg" xmlns:xlink="http://www.w3.org/1999/xlink">
    <!-- Generator: Sketch 39.1 (31720) - http://www.bohemiancoding.com/sketch -->
    <title>Screen</title>
    <defs></defs>
    <g id="Layout" stroke="none" stroke-width="1" fill="none" fill-rule="evenodd">
        <g id="Homepage-A" transform="translate(-862.000000, -2146.000000)" fill="currentColor">
            <g id="Call-Out-Section" transform="translate(0.000000, 2079.000000)">
                <g id="Page-1" transform="translate(842.000000, 51.000000)">
                    <path d="M76.4584148,36.5069798 L76.4584148,49.8232796 C76.4584148,50.5595479 76.1993839,51.1942619 75.6750041,51.7147274 C75.1506243,52.24154 74.5188414,52.5017728 73.7859732,52.5017728 L49.2159369,52.5017728 C48.4830688,52.5017728 47.8512859,52.24154 47.3332239,51.7147274 C46.8088441,51.1942619 46.5434953,50.5595479 46.5434953,49.8232796 L46.5434953,36.5069798 C47.036286,37.0528338 47.5985727,37.5415636 48.2303556,37.966822 C52.2611304,40.7151336 55.0283394,42.6446642 56.5256649,43.7490666 C57.1637656,44.218755 57.6755097,44.5868891 58.0735329,44.8471218 C58.4652383,45.1137017 58.9896181,45.3802816 59.6466723,45.6532086 C60.3037265,45.9261356 60.9165559,46.0657727 61.4851605,46.0657727 L61.504114,46.0657727 L61.5167497,46.0657727 C62.0853542,46.0657727 62.6981836,45.9261356 63.3552378,45.6532086 C64.012292,45.3802816 64.5366718,45.1137017 64.934695,44.8471218 C65.3264004,44.5868891 65.8444624,44.218755 66.4762453,43.7490666 C68.3652761,42.3780843 71.138803,40.4485538 74.790508,37.966822 C75.4222909,37.5288693 75.9782598,37.0464867 76.4584148,36.5069798 M76.4584148,31.5752519 C76.4584148,32.4575044 76.1867482,33.301674 75.6434149,34.1077608 C75.0937638,34.9138476 74.4177561,35.5993387 73.6027562,36.1705814 C69.4203535,39.0902658 66.817408,40.9055478 65.7939198,41.6227747 C65.6801989,41.6989404 65.4464392,41.8703131 65.0800051,42.1305459 C64.7198889,42.3971258 64.4229509,42.6065814 64.1828734,42.771607 C63.9427959,42.9302855 63.6521758,43.1143526 63.311013,43.3174611 C62.9761681,43.5142224 62.6539588,43.6665538 62.3507031,43.768108 C62.0537651,43.8696623 61.7757806,43.9204394 61.5167497,43.9204394 L61.504114,43.9204394 L61.4851605,43.9204394 C61.2324474,43.9204394 60.9481451,43.8696623 60.6512071,43.768108 C60.3479513,43.6665538 60.0320599,43.5142224 59.6908971,43.3174611 C59.3497344,43.1143526 59.0591142,42.9302855 58.8253546,42.771607 C58.5852771,42.6065814 58.2820213,42.3971258 57.921905,42.1305459 C57.5617888,41.8703131 57.3217113,41.6989404 57.2143082,41.6227747 C56.1971378,40.9055478 54.7440371,39.8836583 52.8360528,38.5634532 C50.9343864,37.2369009 49.7971772,36.4371612 49.4181074,36.1705814 C48.7294641,35.700893 48.0787277,35.0598318 47.4658983,34.2347036 C46.8530689,33.4159226 46.5434953,32.6479186 46.5434953,31.9433861 C46.5434953,31.0738279 46.777255,30.3439068 47.2384565,29.766317 C47.699658,29.1823801 48.3567122,28.8967588 49.2159369,28.8967588 L73.7859732,28.8967588 C74.5125236,28.8967588 75.1379886,29.1569916 75.6686862,29.6838042 C76.193066,30.2042697 76.4584148,30.8389837 76.4584148,31.5752519 M96.7007384,58.7664 L96.7007384,23.4064827 C96.7007384,23.0383485 96.568064,22.7209915 96.3027152,22.4544117 C96.0310485,22.1814846 95.7151571,22.0481947 95.348723,22.0481947 L27.659505,22.0481947 C27.2867531,22.0481947 26.9708616,22.1814846 26.7055128,22.4544117 C26.440164,22.7209915 26.3011718,23.0383485 26.3011718,23.4064827 L26.3011718,58.7664 C26.3011718,59.1345341 26.440164,59.4582383 26.7055128,59.7248182 C26.9708616,59.9977452 27.2867531,60.1310351 27.659505,60.1310351 L95.348723,60.1310351 C95.7151571,60.1310351 96.0310485,59.9977452 96.3027152,59.7248182 C96.568064,59.4582383 96.7007384,59.1345341 96.7007384,58.7664 M102.115118,23.4064827 L102.115118,69.6517452 C102.115118,71.5178044 101.451746,73.1172837 100.131319,74.4501831 C98.8045754,75.7830825 97.2124825,76.4495322 95.348723,76.4495322 L72.3328726,76.4495322 C72.3328726,77.4968104 72.5603144,78.5948656 73.0088803,79.7436979 C73.463764,80.8925303 73.9123298,81.8953784 74.3672135,82.7585895 C74.8157793,83.6281477 75.0432212,84.2438202 75.0432212,84.6119544 C75.0432212,85.3482226 74.7715545,85.9829366 74.2408569,86.5224435 C73.7038415,87.0619504 73.0657408,87.3285303 72.3328726,87.3285303 L50.6753554,87.3285303 C49.9361694,87.3285303 49.3043865,87.0619504 48.7673711,86.5224435 C48.2303556,85.9829366 47.9650068,85.3482226 47.9650068,84.6119544 C47.9650068,84.2120845 48.1924487,83.5900648 48.6410145,82.7395481 C49.0958982,81.8890313 49.544464,80.8988774 49.9930299,79.7627394 C50.4479135,78.6329484 50.6753554,77.5285461 50.6753554,76.4495322 L27.659505,76.4495322 C25.7957455,76.4495322 24.2036526,75.7830825 22.8769085,74.4501831 C21.5501645,73.1172837 20.8867925,71.5178044 20.8867925,69.6517452 L20.8867925,23.4064827 C20.8867925,21.5340763 21.5501645,19.934597 22.8769085,18.6016976 C24.2036526,17.2751454 25.7957455,16.6086957 27.659505,16.6086957 L95.348723,16.6086957 C97.2124825,16.6086957 98.8045754,17.2751454 100.131319,18.6016976 C101.451746,19.934597 102.115118,21.5340763 102.115118,23.4064827" id="Fill-1"></path>
                </g>
            </g>
        </g>
    </g>
</svg>