<?xml version="1.0" encoding="UTF-8" standalone="no"?>
<svg width="46px" height="36px" viewBox="0 0 46 36" version="1.1" xmlns="http://www.w3.org/2000/svg" xmlns:xlink="http://www.w3.org/1999/xlink">
    <!-- Generator: Sketch 39.1 (31720) - http://www.bohemiancoding.com/sketch -->
    <title>Next</title>
    <defs></defs>
    <g id="Layout" stroke="none" stroke-width="1" fill="none" fill-rule="evenodd">
        <g id="Homepage-A" transform="translate(-1469.000000, -1774.000000)" fill="#67BBC5">
            <g id="How-We-Help" transform="translate(0.000000, 1514.000000)">
                <path d="M1508.90593,278.803963 C1509.76982,278.803963 1510.05254,278.445843 1509.53421,277.754736 L1492.80784,255.556048 C1492.28951,254.864941 1491.44133,254.916774 1490.923,255.607881 L1474.19663,277.728034 C1473.6783,278.419142 1473.96102,278.803963 1474.82491,278.803963 L1484.09046,278.803963 C1484.95435,278.803963 1485.28733,279.923871 1485.28733,280.787756 L1485.28733,299.359699 C1485.28733,300.223584 1486.36797,300.793747 1487.23186,300.793747 L1496.49898,300.793747 C1497.36287,300.793747 1497.85293,300.223584 1497.85293,299.359699 L1497.85293,280.787756 C1497.85293,279.923871 1498.7765,278.803963 1499.64038,278.803963 L1508.90593,278.803963 Z" id="Right-Arrow" transform="translate(1491.865421, 277.928327) rotate(-270.000000) translate(-1491.865421, -277.928327) "></path>
            </g>
        </g>
    </g>
</svg>