<?xml version="1.0" encoding="UTF-8" standalone="no"?>
<svg width="83px" height="70px" viewBox="0 0 83 70" version="1.1" xmlns="http://www.w3.org/2000/svg" xmlns:xlink="http://www.w3.org/1999/xlink">
    <!-- Generator: Sketch 39.1 (31720) - http://www.bohemiancoding.com/sketch -->
    <title>Check</title>
    <defs></defs>
    <g id="Layout" stroke="none" stroke-width="1" fill="none" fill-rule="evenodd">
        <g id="Homepage-A" transform="translate(-447.000000, -2144.000000)" fill="currentColor">
            <g id="Call-Out-Section" transform="translate(0.000000, 2079.000000)">
                <g id="Page-1" transform="translate(447.000000, 65.000000)">
                    <path d="M81.5619556,15.5404978 L41.0544462,55.9521232 C40.2593071,56.7453802 39.3081126,57.1383019 38.2157251,57.1383019 C37.1233377,57.1383019 36.1795744,56.7453802 35.3844353,55.9521232 L13.9825591,34.6009067 C13.1874199,33.8076497 12.793566,32.8661203 12.793566,31.7689051 C12.793566,30.6791034 13.1874199,29.737574 13.9825591,28.944317 L19.4593587,23.4804814 C20.2544978,22.6872244 21.1982611,22.2943027 22.2906485,22.2943027 C23.3904672,22.2943027 24.3342305,22.6872244 25.1293696,23.4804814 L38.2157251,36.5432743 L70.4151451,4.4200725 C71.2102842,3.6268155 72.1540475,3.22648019 73.246435,3.22648019 C74.3462536,3.22648019 75.2900169,3.6268155 76.085156,4.4200725 L81.5619556,9.8764945 C82.3570947,10.6771651 82.7583799,11.6186945 82.7583799,12.7084961 C82.7583799,13.8057114 82.3570947,14.7472408 81.5619556,15.5404978 M70.0658784,39.8126793 L70.0658784,55.6036832 C70.0658784,59.5403138 68.6613802,62.9135094 65.8598152,65.708443 C63.0582502,68.5033765 59.6844822,69.9045501 55.7310801,69.9045501 L14.3318258,69.9045501 C10.3858549,69.9045501 7.00465572,68.5033765 4.20309068,65.708443 C1.40152564,62.9135094 -0.0029724828,59.5403138 -0.0029724828,55.6036832 L-0.0029724828,14.3024238 C-0.0029724828,10.3583796 1.40152564,6.99259755 4.20309068,4.197664 C7.00465572,1.40273044 10.3858549,0.00155685954 14.3318258,0.00155685954 L55.7310801,0.00155685954 C57.8266804,0.00155685954 59.7662255,0.416719403 61.5571463,1.23963087 C62.0550372,1.47686661 62.3522855,1.85496107 62.4488912,2.38874148 C62.5529281,2.94476275 62.4043039,3.42664784 62.0030188,3.81956954 L59.5655829,6.25864948 C59.2311785,6.58484862 58.852187,6.74794819 58.421177,6.74794819 C58.3245713,6.74794819 58.1759472,6.71829372 57.9753046,6.65157117 C57.2098902,6.45140352 56.4667695,6.3550265 55.7310801,6.3550265 L14.3318258,6.3550265 C12.1396198,6.3550265 10.2669556,7.13345627 8.70640213,8.6903158 C7.14584866,10.2471753 6.36557192,12.1154068 6.36557192,14.3024238 L6.36557192,55.6036832 C6.36557192,57.7907002 7.14584866,59.6589316 8.70640213,61.2157912 C10.2669556,62.7726507 12.1396198,63.5510805 14.3318258,63.5510805 L55.7310801,63.5510805 C57.9232861,63.5510805 59.7959503,62.7726507 61.3565038,61.2157912 C62.9170572,59.6589316 63.697334,57.7907002 63.697334,55.6036832 L63.697334,42.993121 C63.697334,42.5631312 63.8459581,42.199864 64.1432064,41.9033193 L67.323763,38.7228777 C67.6581673,38.3966785 68.0445901,38.2261653 68.4756001,38.2261653 C68.6762427,38.2261653 68.869454,38.2780606 69.0700966,38.3744377 C69.731474,38.6413279 70.0658784,39.123213 70.0658784,39.8126793" id="Fill-1"></path>
                </g>
            </g>
        </g>
    </g>
</svg>